<?xml version="1.0" encoding="UTF-8"?>
	<kml xmlns="http://earth.google.com/kml/2.1">
	<Document>
		<name>Taxi Routes</name>
		<Style id="lime">
			<LineStyle>
				<color>ff009900</color>
				<width>4</width>
			</LineStyle>
		</Style>
		<Style id="green">
			<LineStyle>
				<color>ff00ff00</color>
				<width>4</width>
			</LineStyle>
		</Style>
		<Style id="red">
			<LineStyle>
				<color>ff0000ff</color>
				<width>4</width>
			</LineStyle>
		</Style>
		<Style id="blue">
			<LineStyle>
				<color>ff0000ff</color>
				<width>4</width>
			</LineStyle>
		</Style>
		<Style id="yellow">
			<LineStyle>
				<color>ffffff00</color>
				<width>4</width>
			</LineStyle>
		</Style>
		<Style id="cyan">
			<LineStyle>
				<color>ff00ffff</color>
				<width>4</width>
			</LineStyle>
		</Style>
		<Style id="magenta">
			<LineStyle>
				<color>ffff00ff</color>
				<width>4</width>
			</LineStyle>
		</Style>
		<Style id="maroon">
			<LineStyle>
				<color>ff800000</color>
				<width>4</width>
			</LineStyle>
		</Style>
		<Style id="purple">
			<LineStyle>
				<color>ff800080</color>
				<width>4</width>
			</LineStyle>
		</Style>
		<Style id="teal">
			<LineStyle>
				<color>ff008080</color>
				<width>4</width>
			</LineStyle>
		</Style>
		<Style id="navy">
			<LineStyle>
				<color>ff000080</color>
				<width>4</width>
			</LineStyle>
		</Style>
		<Style id="one">
			<LineStyle>
				<color>ff808000</color>
				<width>4</width>
			</LineStyle>
		</Style>

		<Placemark>
			<name>Taxi 100 first</name>
			<styleUrl>#lime</styleUrl>
			<LineString>
				<altitudeMode>relative</altitudeMode>
				<coordinates>
23.733998,37.9756885
23.7340236,37.9757564
23.7340438,37.9757955
23.7341089,37.975934
23.7341564,37.9760117
23.7342048,37.976078
23.7342585,37.9761266
23.734351,37.9761805
23.7343947,37.9762898
23.7344157,37.9763324
23.7344673,37.9765445
23.7344602,37.9766098
23.734435,37.9766622
23.7348068,37.9768472
23.7347623,37.9769002
23.734151,37.9776286
23.7341002,37.9776891
23.7347493,37.978022
23.7347911,37.9780434
23.7348632,37.9780804
23.7349878,37.9781443
23.7359527,37.9786391
23.7363999,37.9788685
23.7364846,37.9789119
23.7368224,37.9790923
23.7370191,37.9791953
23.7373749,37.9793873
23.7375354,37.979473
23.7383764,37.9799221
23.7384404,37.9799563
23.7389089,37.9801923
23.7392291,37.9803513
23.7393,37.9803899
23.7397104,37.9805989
23.7401313,37.9808296
23.7402898,37.9809088
23.7403984,37.9809625
23.7405853,37.9810548
23.740524,37.9811722
23.7404826,37.981284
23.7404662,37.9814351
23.7404816,37.9815956
23.7404867,37.9816546
23.740545,37.9818342
23.7406558,37.9820249
23.7406079,37.9820424
23.7405861,37.9820967
23.740608,37.9821682
23.7406711,37.9823902
23.7406858,37.9824959
23.7406831,37.9828234
23.7407137,37.9828808
23.7409603,37.9831022
23.7416297,37.9837347
23.7418522,37.9838526
23.7414609,37.984285
				</coordinates>
			</LineString>
		</Placemark>

		<Placemark>
			<name>Taxi 100 second</name>
			<styleUrl>#green</styleUrl>
			<LineString>
				<altitudeMode>relative</altitudeMode>
				<coordinates>
23.733998,37.9756885
23.7340236,37.9757564
23.7340438,37.9757955
23.7341089,37.975934
23.7341564,37.9760117
23.7342048,37.976078
23.7342585,37.9761266
23.734351,37.9761805
23.7343947,37.9762898
23.7344157,37.9763324
23.7344673,37.9765445
23.7344602,37.9766098
23.734435,37.9766622
23.7343863,37.9767209
23.7343545,37.9767585
23.7337285,37.9774985
23.7338549,37.9775633
23.7340657,37.9776714
23.7341002,37.9776891
23.7347493,37.978022
23.7347911,37.9780434
23.7348632,37.9780804
23.7349878,37.9781443
23.7359527,37.9786391
23.7363999,37.9788685
23.7364846,37.9789119
23.7368224,37.9790923
23.7370191,37.9791953
23.7373749,37.9793873
23.7375354,37.979473
23.7383764,37.9799221
23.7384404,37.9799563
23.7389089,37.9801923
23.7392291,37.9803513
23.7393,37.9803899
23.7397104,37.9805989
23.7401313,37.9808296
23.7402898,37.9809088
23.7403984,37.9809625
23.7405853,37.9810548
23.740524,37.9811722
23.7404826,37.981284
23.7404662,37.9814351
23.7404816,37.9815956
23.7404867,37.9816546
23.740545,37.9818342
23.7406558,37.9820249
23.7406079,37.9820424
23.7405861,37.9820967
23.740608,37.9821682
23.7406711,37.9823902
23.7406858,37.9824959
23.7406831,37.9828234
23.7407137,37.9828808
23.7409603,37.9831022
23.7416297,37.9837347
23.7418522,37.9838526
23.7414609,37.984285
				</coordinates>
			</LineString>
		</Placemark>

		<Placemark>
			<name>Taxi 110</name>
			<styleUrl>#red</styleUrl>
			<LineString>
				<altitudeMode>relative</altitudeMode>
				<coordinates>
23.7337386,37.9757207
23.7333398,37.9757668
23.7330959,37.9757996
23.7328759,37.9758291
23.7325535,37.9758724
23.7321155,37.975929
23.7318833,37.9759607
23.7317545,37.9759783
23.7310201,37.9760811
23.7304956,37.9761502
23.7301956,37.9761881
23.7300049,37.9762121
23.7297233,37.9762477
23.7296609,37.9762574
23.7287858,37.9763798
23.7288026,37.9764583
23.7285119,37.976497
23.7284935,37.9764113
23.7283477,37.9764271
23.728143,37.9764575
23.7275712,37.9765425
23.7269044,37.9766266
23.7268188,37.9766374
23.7267419,37.976647
23.7263399,37.9766977
23.7262939,37.9767035
23.7261537,37.9767212
23.7260574,37.9767333
23.7256947,37.9767791
23.7252149,37.9768396
23.7248547,37.976885
23.724469,37.9769337
23.7243788,37.9769451
23.724057,37.9769857
23.72368,37.9770332
23.723493,37.9770568
23.722848,37.9771381
23.7224084,37.9771936
23.7221805,37.9772223
23.7212373,37.9773413
23.72115,37.9773521
23.7211116,37.9772055
23.7211215,37.9771804
23.7211262,37.9771637
23.7211191,37.9771396
23.7211073,37.9771257
23.7210826,37.9771155
23.7210555,37.9771173
23.7207738,37.977313
23.7207615,37.977261
23.7204425,37.9774735
23.7202229,37.9775103
23.7201664,37.9775201
23.7199513,37.9775504
23.7197882,37.9775716
23.7194025,37.9776215
23.719309,37.9776336
23.71885,37.977696
23.7178318,37.9778339
23.7177578,37.9778406
23.7177053,37.9778443
23.7176238,37.9778473
23.7175616,37.977848
23.7175007,37.9778478
23.7174142,37.9778449
23.7172957,37.97784
23.7171904,37.9778326
23.7169314,37.9778154
23.7167562,37.977803
23.716629,37.9777933
23.7164501,37.9777801
23.7163484,37.9777702
23.7162594,37.9777603
23.7155354,37.9776883
23.715329,37.9776688
23.715263,37.9776637
23.7152382,37.9776668
23.715219,37.9776761
23.7152101,37.9776857
23.7151584,37.9777449
23.715142,37.9777636
23.7150855,37.977843
23.7149674,37.9777876
23.7146854,37.9776557
23.7141181,37.9773937
23.7138708,37.9772775
23.7134975,37.9771069
23.7134224,37.9771598
23.7133111,37.9771079
23.7131117,37.9770172
23.7125377,37.9767505
23.7123257,37.9766493
23.7121842,37.9765776
23.7119985,37.9764823
23.7117865,37.9763725
23.7115342,37.9762337
23.7114523,37.9761872
23.7113652,37.976128
23.7111211,37.975962
23.7110402,37.9759263
23.710946,37.9758991
23.7103404,37.9757934
23.7101688,37.9757628
23.7096676,37.9756733
23.7090689,37.9755705
23.7088157,37.9755281
23.708332,37.9754533
23.7079687,37.9753965
23.7077228,37.975357
23.7072863,37.9752878
23.7071678,37.9752708
23.7067989,37.9752383
23.7067305,37.9752348
23.7063859,37.9752374
23.706192,37.9752415
23.7061127,37.9752423
23.7060062,37.9752388
23.7058388,37.9750872
23.7055489,37.9748247
23.7053048,37.9745714
23.7048868,37.9741533
23.7048369,37.9742018
23.7047662,37.9742177
23.7034758,37.973095
23.703059,37.9727376
23.7026229,37.9723462
23.7025396,37.9722807
23.7021454,37.9719748
23.7019684,37.9718446
23.7017658,37.9716751
23.7016006,37.9715535
23.7013439,37.9713876
23.7009652,37.9711506
23.7006073,37.9709476
23.7002152,37.9707367
23.6999024,37.9705919
23.6995347,37.9704296
23.6992996,37.9703386
23.6991613,37.9702831
23.6988835,37.9701831
23.6987192,37.9701273
23.6985517,37.9700781
23.6985536,37.9699401
23.698454,37.9699086
23.6981965,37.9698325
23.6979899,37.969769
23.6972242,37.9695565
23.6961674,37.96927
23.6943354,37.96879
23.6939532,37.9686896
23.6936548,37.9686108
23.6931618,37.968477
23.6927871,37.9680272
23.6927688,37.9679936
23.6927657,37.967967
23.6928417,37.9677788
23.692363,37.9676512
23.6918684,37.9675193
23.6915079,37.966896
				</coordinates>
			</LineString>
		</Placemark>

		<Placemark>
			<name>Taxi 120</name>
			<styleUrl>#red</styleUrl>
			<LineString>
				<altitudeMode>relative</altitudeMode>
				<coordinates>
23.7340236,37.9757564
23.7340438,37.9757955
23.7341089,37.975934
23.7341564,37.9760117
23.7342048,37.976078
23.7342585,37.9761266
23.734351,37.9761805
23.7344963,37.9761606
23.7345342,37.9761561
23.7355361,37.9760364
23.7355718,37.9760159
23.7356306,37.9759843
23.7357815,37.9760561
23.735889,37.9760945
23.7359181,37.9760849
23.7359604,37.9760694
23.7359895,37.9760816
23.7360212,37.976092
23.7360174,37.9760735
23.7360384,37.9760806
23.7360925,37.9760877
23.7374872,37.9759107
23.7377231,37.9758807
23.7378122,37.9758686
23.7390765,37.9757118
23.7404079,37.9755394
23.7404559,37.9755193
23.7405417,37.9755095
23.7406184,37.9755
23.7406521,37.9755075
23.7407287,37.9755053
23.7417244,37.9753741
23.742802,37.9752321
23.7428557,37.975221
23.7428751,37.9752137
23.7428828,37.9751949
23.7429783,37.9752004
23.7431098,37.975208
23.743257,37.975243
23.7433329,37.9752617
23.7433783,37.9752719
23.7434269,37.9752915
23.7438197,37.9753773
23.7443081,37.9754972
23.7445471,37.9755559
23.7447447,37.9756029
23.7456747,37.975824
23.7457213,37.9758286
23.7457464,37.9758234
23.7457686,37.9758153
23.7458832,37.9755082
23.7460092,37.9751776
23.7460721,37.9751937
23.746154,37.9749633
23.7463139,37.9745133
23.7463368,37.9744488
23.7463515,37.9744075
23.7463864,37.9743093
23.7464332,37.9741777
23.7464566,37.9741127
23.7464966,37.9740155
23.7465204,37.9739546
23.7465468,37.9738871
23.7466984,37.9734992
23.7468195,37.9731894
23.7468405,37.9731357
23.7468599,37.9730858
23.7468946,37.972997
23.7470353,37.9726372
23.7470805,37.9725214
23.7471155,37.9724371
23.7471315,37.9723985
23.7471635,37.9723214
23.7473302,37.9719199
23.7474236,37.9716709
23.747466,37.9715706
23.7475036,37.971513
23.7475737,37.9715073
23.7475486,37.971357
23.7483362,37.9712697
23.7490831,37.971202
23.7493735,37.9711759
23.7498532,37.9711328
23.7502276,37.9707343
23.750512,37.9704308
23.7509648,37.9699334
23.7512416,37.9696433
23.7515392,37.969326
23.7520787,37.9687067
23.7520398,37.9686846
23.7527571,37.9678974
23.7533851,37.9672154
23.7540519,37.9664918
23.7543986,37.9661174
23.7550129,37.9654351
23.7555233,37.9648535
23.7561075,37.964199
23.7564672,37.9638129
23.7568359,37.9634172
23.7571792,37.9630383
23.7573706,37.9627658
23.7579842,37.9626349
				</coordinates>
			</LineString>
		</Placemark>

		<Placemark>
			<name>Taxi 130</name>
			<styleUrl>#red</styleUrl>
			<LineString>
				<altitudeMode>relative</altitudeMode>
				<coordinates>
23.7340236,37.9757564
23.7340438,37.9757955
23.7341089,37.975934
23.7341564,37.9760117
23.7342048,37.976078
23.7342585,37.9761266
23.734351,37.9761805
23.7344963,37.9761606
23.7345342,37.9761561
23.7355361,37.9760364
23.7356418,37.9760584
23.7356995,37.9760775
23.7357437,37.9760944
23.7357891,37.9761159
23.7358083,37.9762601
23.7358438,37.9765
23.7358752,37.9767127
23.7358926,37.9768302
23.7360165,37.9769416
23.7369731,37.977412
23.7372481,37.9775413
23.7374289,37.9776263
23.7375103,37.9776646
23.7376274,37.9775221
23.7376956,37.9775575
23.7381753,37.9778066
23.7386722,37.9780646
23.7391296,37.9783021
23.73961,37.9785516
23.7400123,37.9787679
23.7404277,37.9789783
23.7408684,37.9792148
23.7412694,37.9794367
23.741336,37.9794673
23.7414335,37.9794616
23.7417116,37.9793719
23.7418803,37.9793637
23.7420385,37.9793954
23.7422243,37.9794361
23.74227,37.9794733
23.7423742,37.9794813
23.742471,37.979498
23.7428558,37.979586
23.744266,37.9799226
23.7443128,37.9799335
23.7455922,37.9802393
23.7466882,37.9804995
23.747398,37.9807024
23.7485629,37.9810664
23.7490213,37.981399
23.7499692,37.981845
23.7508508,37.982259
23.7512424,37.9824413
23.7517594,37.9826807
23.7524882,37.9830311
23.7526242,37.9831103
23.7531203,37.9834865
23.7531883,37.9835562
23.753292,37.9836624
23.7533598,37.9838688
23.753476,37.9842227
23.7535967,37.9845794
23.7543799,37.9844293
23.7550554,37.9849453
23.7552236,37.9851203
23.75527,37.9851686
23.7555695,37.9853258
23.7560246,37.9855683
23.7565377,37.9858362
23.7568698,37.9861699
23.7569945,37.9862953
23.7574939,37.9868549
23.7575496,37.9870284
23.7575615,37.9870653
23.757583,37.9871317
23.7576088,37.9871702
23.7576464,37.9872022
23.7576932,37.9872256
23.7577154,37.9872983
23.757729,37.9873399
23.7578551,37.9877423
23.7580158,37.9882543
23.7580442,37.9883334
23.7581924,37.9888139
23.758216,37.9888999
23.7582945,37.9891344
23.7583684,37.9893664
23.7584788,37.9896852
23.7585932,37.9899351
23.7587064,37.9901728
23.7588405,37.9903869
23.7589402,37.9905492
23.7592128,37.9909023
23.7594543,37.9911888
23.759745,37.99147
23.7599826,37.9916847
23.7601985,37.9918556
23.7606296,37.992136
23.7608044,37.9922435
23.7613096,37.9925302
23.7620302,37.9928581
23.7628635,37.9931192
23.7629816,37.9931525
23.7633847,37.9932357
23.7634898,37.993251
23.7637761,37.993298
23.7642667,37.993325
23.7644074,37.9933266
23.7645202,37.9934223
23.7648225,37.9936605
23.7653461,37.9940562
23.7659285,37.994479
23.7671874,37.9954154
23.7672459,37.9953786
23.7675974,37.9951574
23.7677334,37.9951079
23.7680404,37.9958015
23.7681139,37.9959746
23.7682301,37.9961839
23.7689461,37.9976539
23.7690898,37.9979155
23.7693018,37.9982093
23.7695021,37.9984522
23.7696474,37.998634
23.7697909,37.9987991
23.7699838,37.9989718
23.7702535,37.999191
23.7708575,37.9996499
23.7712019,37.9999112
23.7714399,38.000106
23.7717248,38.0003794
23.7717757,38.0004789
23.7720181,38.0007215
23.7723917,38.001105
23.7733283,38.0021374
23.7734095,38.0022288
23.7734289,38.0022499
23.7734958,38.0023081
23.7737526,38.0025455
23.7740369,38.002878
23.7742707,38.0031721
23.7751552,38.0044047
23.7758012,38.00528
23.7761606,38.005742
23.7768765,38.0066198
23.7771218,38.0068895
23.777505,38.0073194
23.7778375,38.0076582
23.7779551,38.0078132
23.7795045,38.0095111
23.7798988,38.0099433
23.7799798,38.0100321
23.7800999,38.0101618
23.7801249,38.0101888
23.7825724,38.0129109
23.782939,38.0133178
23.784272,38.0148112
23.7845764,38.0151522
23.7846828,38.0152657
23.7845981,38.0153161
23.7846281,38.0154055
23.7846241,38.0155023
23.7845432,38.0174427
23.7845432,38.0177132
23.7845518,38.018031
23.7846772,38.0192393
23.7847406,38.0198499
23.7847828,38.0204504
23.7848422,38.0212956
23.7848607,38.0215559
23.7849231,38.0215596
23.784884,38.0216454
23.7848748,38.0216903
23.7848656,38.0217328
23.784844,38.0217619
23.7848163,38.0218081
23.7848132,38.0218445
23.7848086,38.0218882
23.7848389,38.021914
23.78484,38.0219397
23.7848178,38.0219655
23.7847793,38.0219857
23.7847548,38.0220777
23.7847309,38.0221404
23.7847901,38.022158
23.7848983,38.0221948
23.784942,38.0222283
23.7850037,38.0222537
23.78506,38.0223023
23.7850896,38.0223636
23.7850815,38.0224417
23.7850386,38.0225094
23.7850118,38.0225981
23.7849662,38.0226446
23.784944,38.0227473
23.7849472,38.0228769
23.7850337,38.0238656
23.7850423,38.0240279
23.7850595,38.0241969
23.7851195,38.0248257
23.7851195,38.025015
23.7851453,38.0251908
23.7851968,38.0256573
23.7852225,38.0257047
23.7855827,38.0260762
23.7857566,38.0262715
23.7860636,38.026597
23.7865627,38.0271173
23.7866196,38.0271766
23.7869242,38.0274929
23.7872386,38.0278347
23.7873227,38.0280358
23.7874802,38.0283486
23.7875849,38.0288262
23.7878761,38.0293564
23.7871645,38.0298241
23.7875459,38.0302631
23.78777,38.0304277
23.7879922,38.03052
23.7882497,38.0306417
23.7883613,38.030858
23.7886503,38.0317787
23.7886794,38.0318205
23.7890063,38.0330795
				</coordinates>
			</LineString>
		</Placemark>

		<Placemark>
			<name>Taxi 140</name>
			<styleUrl>#red</styleUrl>
			<LineString>
				<altitudeMode>relative</altitudeMode>
				<coordinates>
23.7340236,37.9757564
23.7340438,37.9757955
23.7341089,37.975934
23.7341564,37.9760117
23.7342048,37.976078
23.7342585,37.9761266
23.734351,37.9761805
23.7343947,37.9762898
23.7344157,37.9763324
23.7344673,37.9765445
23.7344602,37.9766098
23.734435,37.9766622
23.7348068,37.9768472
23.7347623,37.9769002
23.734151,37.9776286
23.7341002,37.9776891
23.7347493,37.978022
23.7347911,37.9780434
23.7348632,37.9780804
23.7349878,37.9781443
23.7359527,37.9786391
23.7363999,37.9788685
23.7364846,37.9789119
23.7368224,37.9790923
23.7370191,37.9791953
23.7373749,37.9793873
23.7375354,37.979473
23.7383764,37.9799221
23.7384404,37.9799563
23.7389089,37.9801923
23.7392291,37.9803513
23.7393,37.9803899
23.7397104,37.9805989
23.7401313,37.9808296
23.7402898,37.9809088
23.7403984,37.9809625
23.7405853,37.9810548
23.740524,37.9811722
23.7404826,37.981284
23.7404662,37.9814351
23.7404816,37.9815956
23.7404867,37.9816546
23.740545,37.9818342
23.7406558,37.9820249
23.7407157,37.9821128
23.7409183,37.9824277
23.7410438,37.9825894
23.7412948,37.9828613
23.7419762,37.9834917
23.7421115,37.9835621
23.7425516,37.9837909
23.7431078,37.9840807
23.7441265,37.9846049
23.7441851,37.9848528
23.7443436,37.9852795
23.7445106,37.9857842
23.7446992,37.9863207
23.7448843,37.9867996
23.7448328,37.9868707
23.7448944,37.986905
23.745058,37.9869716
23.7453885,37.9870742
23.7458056,37.9872825
23.7463059,37.9875323
23.7467414,37.9877498
23.7469064,37.9878321
23.7474193,37.9880882
23.7476069,37.9881819
23.7479683,37.9883624
23.7487456,37.9887536
23.7487839,37.9888063
23.7487675,37.9888827
23.7487323,37.9889236
23.748672,37.9889677
23.7488028,37.9893521
23.748846,37.9894986
23.7489919,37.9899405
23.7491618,37.9904502
23.7493553,37.9910045
23.7494427,37.9913052
23.7495237,37.9915506
23.7495943,37.9920835
23.7497202,37.9925226
23.7498854,37.9929596
23.7500333,37.9933863
23.750071,37.993548
23.750074,37.9935979
23.7500552,37.9936629
23.750212,37.9937642
23.7503525,37.9938328
23.7504505,37.9938666
23.750972,37.9940214
23.7511951,37.9940759
23.751625,37.9941518
23.7518253,37.9941817
23.7518172,37.9942436
23.7521037,37.9947139
23.7521998,37.994871
23.7523358,37.9950934
23.7525188,37.9951823
23.7526821,37.9952617
23.7528422,37.9952937
23.7530265,37.9953477
23.75302,37.995388
23.753173,37.9958423
23.7536745,37.995742
23.7539195,37.9963697
23.7546189,37.9967956
23.7548317,37.9969408
23.7550454,37.9970772
23.7552491,37.9972075
23.7561614,37.9975641
23.7562523,37.9975999
23.7563595,37.9976261
23.7564668,37.9976523
23.7567888,37.9977181
23.757107,37.9977982
23.7572479,37.9978366
23.7576427,37.9979989
23.757883,37.998168
23.7582435,37.9985062
23.7585618,37.9988741
23.7587016,37.9990621
23.7587674,37.9991757
23.75881,37.999284
23.7588023,37.9993723
23.7587797,37.9994605
23.7586821,37.9997456
23.758821,37.9998246
23.7589473,37.9999181
23.7591102,38.0000931
23.7593569,38.0003901
23.7594805,38.0005502
23.7594386,38.00074
23.7594119,38.0008613
23.7594119,38.0010845
23.7596343,38.00191
23.7596965,38.0021646
23.7596772,38.0022493
23.7597438,38.0023884
23.7598287,38.0025127
23.7599409,38.0026404
23.7600458,38.0027397
23.7601756,38.0028226
23.7603179,38.0028892
23.7604904,38.0029607
23.7611351,38.0031977
23.761506,38.003329
23.7618027,38.0034337
23.762164,38.0035924
23.7624963,38.0037792
23.7613543,38.0044237
23.7611151,38.0057135
23.761511,38.0064163
23.7618274,38.0067705
23.761921,38.0068433
23.7620382,38.0076736
23.7629109,38.0084758
23.7637737,38.0101989
23.7632929,38.0112343
23.7634566,38.0113762
23.7635618,38.0114434
23.7636809,38.0116054
23.763701,38.0117128
23.7637319,38.0118121
23.763807,38.0119393
23.7638633,38.0122468
23.7638848,38.0124302
23.7638472,38.0127201
23.7639287,38.0128277
23.7640295,38.0129217
23.7641272,38.0129672
23.7643053,38.0131162
23.7641455,38.0135376
23.7639481,38.0138081
23.7637249,38.0140042
23.7635095,38.0141497
23.7635543,38.0141648
23.7636074,38.0141844
23.763618,38.0142123
23.7636569,38.0142457
23.7637171,38.0142569
23.7637631,38.0142624
23.7638331,38.014293
23.76374,38.0143491
23.7635704,38.0145384
23.7634331,38.0147886
23.7633902,38.0150862
23.7634738,38.0153876
23.7635786,38.0153992
23.7636751,38.0154319
23.7637845,38.0154963
23.764006,38.015626
23.7643697,38.0157936
23.7646948,38.0158604
23.7649587,38.0158525
23.7652573,38.0158026
23.7655531,38.0157286
23.765928,38.0163201
23.7661518,38.016246
23.7663629,38.0165828
23.7664403,38.0167096
23.7665143,38.0167481
23.7666399,38.0167665
23.76682,38.016694
23.7670556,38.0166552
23.7671347,38.0166731
23.7671777,38.0167155
23.7674419,38.016662
23.7676479,38.0166688
23.7676822,38.016831
23.7676564,38.017203
23.7675277,38.0176492
23.7672874,38.0181564
23.7670127,38.018535
				</coordinates>
			</LineString>
		</Placemark>

		<Placemark>
			<name>Taxi 150</name>
			<styleUrl>#red</styleUrl>
			<LineString>
				<altitudeMode>relative</altitudeMode>
				<coordinates>
23.7339743,37.9755271
23.7339715,37.9754779
23.7339708,37.9754409
23.7339721,37.9754029
23.7339735,37.9753797
23.7339752,37.975357
23.7339769,37.9753354
23.7339806,37.975304
23.7339832,37.9752873
23.7339921,37.975251
23.734001,37.9752226
23.734009,37.9751994
23.7340189,37.9751765
23.7340756,37.975054
23.7340876,37.9750199
23.7340862,37.9749994
23.7340189,37.9746149
23.7339694,37.9743322
23.7339611,37.9742947
23.7339458,37.974225
23.7337975,37.9735531
23.7337905,37.9735212
23.7337768,37.9734611
23.7337647,37.9734025
23.7337332,37.9732522
23.7336973,37.973068
23.7336703,37.9729253
23.7336546,37.972845
23.7336499,37.9728237
23.7335969,37.9725807
23.7334781,37.9724449
23.7334409,37.9723996
23.7334128,37.9723454
23.733418,37.9722968
23.7334501,37.972254
23.7335194,37.972204
23.7336581,37.9721216
23.7337164,37.972095
23.7336645,37.9720509
23.7336753,37.9720232
23.7336609,37.9719806
23.7334625,37.9717706
23.7331513,37.9714249
23.733219,37.9713854
23.7329883,37.9711232
23.7329186,37.9710386
23.7328462,37.970953
23.7327932,37.970889
23.7327455,37.9708363
23.7326722,37.9707648
23.7325784,37.9706845
23.7324604,37.9706105
23.7323155,37.9705481
23.7320795,37.9704847
23.7319199,37.9704265
23.7318287,37.9703715
23.7317388,37.9703092
23.7316758,37.9702235
23.7316393,37.970124
23.7316196,37.9700358
23.7316143,37.9700009
23.731613,37.9696773
23.7316119,37.9696019
23.731611,37.9695638
23.7315952,37.9689545
23.7315878,37.9685668
23.7315867,37.9684154
23.7316103,37.9682957
23.731621,37.9682555
23.7316413,37.9682189
23.7316926,37.9681624
23.7317625,37.9681005
23.7317997,37.9680695
23.7318792,37.9680373
23.7319352,37.9680192
23.7319529,37.968014
23.7325502,37.9678264
23.7327131,37.967773
23.732848,37.9677311
23.7329651,37.9676829
23.7330975,37.9675818
23.7331403,37.9675368
23.7331876,37.9674897
23.7332144,37.9674465
23.7332293,37.9674079
23.7332441,37.9673818
23.7332542,37.9673604
23.7332638,37.9673422
23.733282,37.9672983
23.7333121,37.9672144
23.7333286,37.967141
23.733334,37.9670893
23.7333369,37.9670218
23.7333285,37.9669362
23.7332967,37.966841
23.7331519,37.9665493
23.7330718,37.9663622
23.733024,37.9662084
23.7329907,37.9660601
23.7329552,37.965828
23.7329392,37.9656644
23.7329231,37.9654995
23.732925,37.9653619
23.7329436,37.9653109
23.7329603,37.9652618
23.7329719,37.965234
23.7330033,37.9651352
23.7331092,37.9648621
23.7332775,37.9643997
23.7333765,37.9640917
23.7334311,37.9639181
23.7334612,37.9638362
23.7335582,37.9635724
23.7337177,37.9631395
23.7338708,37.9626969
23.7340335,37.9622472
23.7340609,37.9621274
23.734082,37.9620136
23.7340956,37.9619317
23.7341107,37.9618428
23.7341171,37.9617924
23.7341556,37.9610896
				</coordinates>
			</LineString>
		</Placemark>

		<Placemark>
			<name>Taxi 160</name>
			<styleUrl>#red</styleUrl>
			<LineString>
				<altitudeMode>relative</altitudeMode>
				<coordinates>
23.7339743,37.9755271
23.7339715,37.9754779
23.7339708,37.9754409
23.7339721,37.9754029
23.7339735,37.9753797
23.7339752,37.975357
23.7339769,37.9753354
23.7339806,37.975304
23.7339832,37.9752873
23.7339921,37.975251
23.734001,37.9752226
23.734009,37.9751994
23.7340189,37.9751765
23.7340756,37.975054
23.7340876,37.9750199
23.7340862,37.9749994
23.7340189,37.9746149
23.7339694,37.9743322
23.7339611,37.9742947
23.7339458,37.974225
23.7337975,37.9735531
23.7337905,37.9735212
23.7337768,37.9734611
23.7337647,37.9734025
23.7337332,37.9732522
23.7336973,37.973068
23.7336703,37.9729253
23.7336546,37.972845
23.7336499,37.9728237
23.7335969,37.9725807
23.7334781,37.9724449
23.7334409,37.9723996
23.7334128,37.9723454
23.733418,37.9722968
23.7334501,37.972254
23.7335194,37.972204
23.7336581,37.9721216
23.7337164,37.972095
23.7336645,37.9720509
23.7336753,37.9720232
23.7336609,37.9719806
23.7334625,37.9717706
23.7331513,37.9714249
23.733219,37.9713854
23.7329883,37.9711232
23.7329186,37.9710386
23.7328462,37.970953
23.7329457,37.9708239
23.7328801,37.9707545
23.7328449,37.9707212
23.7326209,37.9705301
23.732531,37.9704783
23.7323325,37.9704001
23.7321971,37.9703673
23.7320698,37.9703279
23.7319746,37.9702825
23.7319088,37.9702402
23.7318579,37.9701958
23.7318217,37.9701556
23.7317975,37.9701133
23.7317789,37.9700565
23.7317758,37.9699977
23.7317751,37.9699566
23.7317699,37.9696771
23.7317677,37.9695618
23.7317669,37.9695205
23.7317488,37.9685557
23.7317445,37.9684141
23.7317917,37.9683376
23.7318373,37.9683066
23.7321446,37.9681383
23.7323362,37.9680291
23.7324412,37.9679733
23.7329267,37.9677427
23.7331237,37.9676472
23.7331902,37.9676046
23.7332711,37.9675408
23.7333134,37.9675085
23.7333713,37.9674403
23.7333908,37.9674007
23.7334102,37.9673597
23.7334286,37.9673154
23.7334496,37.9672276
23.7334596,37.9671573
23.733465,37.9671012
23.7334686,37.9670378
23.7334708,37.9670069
23.7334617,37.966927
23.7334305,37.9668271
23.7333784,37.9667097
23.7333039,37.9665469
23.7332683,37.966421
23.7332582,37.966318
23.733262,37.9661804
23.7332804,37.9660484
23.7333319,37.9659094
23.7334826,37.9655873
23.7337578,37.9651031
23.7339738,37.9647411
23.7340148,37.9646723
23.7342891,37.9642323
23.7343308,37.9641618
23.7345658,37.9638327
23.7348567,37.9634715
23.7356638,37.9624386
23.7358409,37.9621897
23.7361115,37.9618386
23.7366334,37.961151
23.7369477,37.960759
23.7370238,37.9606327
23.7371945,37.9603143
23.7372142,37.9602632
23.7372335,37.9602046
23.7372414,37.9601841
23.737254,37.9601521
23.7372908,37.9600687
23.7373823,37.9598438
23.7374275,37.9597399
23.737503,37.9595556
23.737876,37.9586445
23.737922,37.9585658
23.7380536,37.9582281
23.7381805,37.9579137
23.7383024,37.957618
23.7384406,37.9572831
23.7385819,37.9569256
23.7386057,37.9568704
23.7386304,37.9567806
23.7386464,37.9567231
23.7386637,37.9566526
23.7386824,37.9565305
23.7386976,37.9564083
23.7387034,37.956231
23.7387246,37.9558117
23.7387417,37.9554952
23.738748,37.9553586
23.7387692,37.9548832
23.7388064,37.9543511
23.7388199,37.9541213
23.7388396,37.9536767
23.7388432,37.953595
23.7388648,37.9530438
23.7388684,37.9529374
23.7388531,37.9528565
23.7388113,37.9527375
23.7387266,37.9524414
23.7386224,37.9520701
23.738587,37.9519234
23.7385772,37.9518845
23.7385692,37.9518263
23.7385648,37.9517448
23.7385743,37.9516387
23.7386957,37.9511468
23.7388221,37.950588
23.7389415,37.9501429
23.7390368,37.9498097
23.7390534,37.9497522
23.7390748,37.9496859
23.7392892,37.948844
23.7393057,37.9487712
23.7393186,37.9487146
23.7394253,37.9482875
23.7394547,37.9481511
23.739497,37.9479876
23.7395157,37.9479095
23.7395828,37.9476561
23.7398009,37.9467886
23.7399801,37.945997
				</coordinates>
			</LineString>
		</Placemark>

		<Placemark>
			<name>Taxi 170</name>
			<styleUrl>#red</styleUrl>
			<LineString>
				<altitudeMode>relative</altitudeMode>
				<coordinates>
23.7340236,37.9757564
23.7340438,37.9757955
23.7341089,37.975934
23.7341564,37.9760117
23.7342048,37.976078
23.7342585,37.9761266
23.734351,37.9761805
23.7343947,37.9762898
23.7344157,37.9763324
23.7344673,37.9765445
23.7344602,37.9766098
23.734435,37.9766622
23.7348068,37.9768472
23.7347623,37.9769002
23.734151,37.9776286
23.7341002,37.9776891
23.7347493,37.978022
23.7347911,37.9780434
23.7348632,37.9780804
23.7349878,37.9781443
23.7359527,37.9786391
23.7363999,37.9788685
23.7364846,37.9789119
23.7368224,37.9790923
23.7370191,37.9791953
23.7373749,37.9793873
23.7375354,37.979473
23.7383764,37.9799221
23.7384404,37.9799563
23.7389089,37.9801923
23.7392291,37.9803513
23.7393,37.9803899
23.7397104,37.9805989
23.7401313,37.9808296
23.7402898,37.9809088
23.7403984,37.9809625
23.7405853,37.9810548
23.740524,37.9811722
23.7404826,37.981284
23.7404662,37.9814351
23.7404816,37.9815956
23.7404867,37.9816546
23.740545,37.9818342
23.7406558,37.9820249
23.7407157,37.9821128
23.7409183,37.9824277
23.7410438,37.9825894
23.7412948,37.9828613
23.7419762,37.9834917
23.7421115,37.9835621
23.7425516,37.9837909
23.7431078,37.9840807
23.7441265,37.9846049
23.7441851,37.9848528
23.7443436,37.9852795
23.7445106,37.9857842
23.7446992,37.9863207
23.7448843,37.9867996
23.7448328,37.9868707
23.7448944,37.986905
23.745058,37.9869716
23.7453885,37.9870742
23.7458056,37.9872825
23.7463059,37.9875323
23.7467414,37.9877498
23.7469064,37.9878321
23.7474193,37.9880882
23.7476069,37.9881819
23.7479683,37.9883624
23.7487456,37.9887536
23.7487839,37.9888063
23.7487675,37.9888827
23.7487323,37.9889236
23.748672,37.9889677
23.7488028,37.9893521
23.748846,37.9894986
23.7489919,37.9899405
23.7491618,37.9904502
23.7493553,37.9910045
23.7494427,37.9913052
23.7495237,37.9915506
23.7495943,37.9920835
23.7497202,37.9925226
23.7498854,37.9929596
23.7500333,37.9933863
23.750071,37.993548
23.750074,37.9935979
23.7500552,37.9936629
23.750212,37.9937642
23.7503525,37.9938328
23.7504505,37.9938666
23.750972,37.9940214
23.7511951,37.9940759
23.751625,37.9941518
23.7518253,37.9941817
23.7518172,37.9942436
23.7521037,37.9947139
23.7521998,37.994871
23.7523358,37.9950934
23.7525188,37.9951823
23.7526821,37.9952617
23.7528422,37.9952937
23.7530265,37.9953477
23.75302,37.995388
23.753173,37.9958423
23.7536745,37.995742
23.7539195,37.9963697
23.7546189,37.9967956
23.7548317,37.9969408
23.7550454,37.9970772
23.7551107,37.9969776
23.7551965,37.996937
23.7559099,37.9971779
23.7565183,37.9973834
				</coordinates>
			</LineString>
		</Placemark>

		<Placemark>
			<name>Taxi 180</name>
			<styleUrl>#red</styleUrl>
			<LineString>
				<altitudeMode>relative</altitudeMode>
				<coordinates>
23.7339743,37.9755271
23.7339715,37.9754779
23.7339708,37.9754409
23.7339721,37.9754029
23.7339735,37.9753797
23.7339752,37.975357
23.7339769,37.9753354
23.7339806,37.975304
23.7339832,37.9752873
23.7339921,37.975251
23.734001,37.9752226
23.734009,37.9751994
23.7340189,37.9751765
23.7340756,37.975054
23.7340876,37.9750199
23.7340862,37.9749994
23.7340189,37.9746149
23.7339694,37.9743322
23.7339611,37.9742947
23.7340429,37.9742831
23.7340389,37.9742657
23.7340523,37.9742535
23.7351505,37.9741108
23.7351886,37.9741061
23.7352187,37.9740895
23.7352777,37.9740435
23.7353108,37.9740151
23.735402,37.9740045
23.7355479,37.9739867
23.7356025,37.9739671
23.7356089,37.9740007
23.7360514,37.9739485
23.7360308,37.9738739
23.7363212,37.9738272
23.7366741,37.9737659
23.7365766,37.9735587
23.736988,37.9734789
23.7370536,37.9734585
23.737083,37.9733902
23.7371357,37.9733049
23.7371982,37.9732395
23.7372625,37.9732057
23.7373391,37.9731872
23.7373484,37.9730196
23.737277,37.9729467
23.7371846,37.9728374
23.7372314,37.9727524
23.7373274,37.9726321
23.737466,37.9725361
23.7374955,37.9724037
23.7374939,37.972302
23.7376323,37.9722328
23.7377056,37.9720285
23.737681,37.9719576
23.7376629,37.9719264
23.7375967,37.9718205
23.7377129,37.9717699
23.7378906,37.9716909
23.7380825,37.9715947
23.7382126,37.9715194
23.7383445,37.9714451
23.7385685,37.971304
23.73873,37.9711845
23.738852,37.9710939
23.7389886,37.971067
23.7393655,37.9710413
23.7397988,37.9710035
23.7408421,37.9709123
23.7409868,37.9707545
23.7409857,37.970624
23.7413195,37.970843
23.7414469,37.9707436
23.7415221,37.9706888
23.7415759,37.970648
23.7416988,37.9705316
23.7418586,37.970362
23.7419886,37.9702241
23.742244,37.969961
23.742334,37.9698683
23.7423942,37.9698063
23.742438,37.9697612
23.7425984,37.9695959
23.7426538,37.9695389
23.7428025,37.9693857
23.7430833,37.9690964
23.7433453,37.9688265
23.7434905,37.968677
23.7436315,37.9685317
23.7437576,37.9684018
23.7438537,37.9683147
23.7438979,37.9682746
23.7439977,37.968199
23.7440485,37.9681632
23.7440986,37.9681298
23.7441648,37.9680952
23.7442342,37.9680624
23.7443089,37.9680357
23.7443795,37.9680155
23.7444437,37.9680093
23.7445553,37.9679986
23.7447828,37.9679776
23.745022,37.9679537
23.7452627,37.9679305
23.7452403,37.9676804
23.7457426,37.9676303
23.7460222,37.9672867
23.7464573,37.9668145
23.7468459,37.9667812
23.7471169,37.9667458
23.7476074,37.9661943
23.7483132,37.9654019
23.748957,37.9646791
23.7493318,37.9642583
23.7497183,37.9638244
23.7502322,37.9632041
23.7505461,37.9628184
23.7508887,37.9623573
23.7512046,37.9620006
23.7513843,37.9617764
23.7518108,37.9614296
23.7520074,37.9611773
23.7520633,37.9611076
23.7526024,37.9608177
23.7527533,37.9607317
23.7530282,37.960146
23.7531868,37.9598038
23.7532,37.9597822
23.7532172,37.9597621
23.7532986,37.95969
23.7535425,37.9595049
23.7537427,37.9593566
23.7538574,37.9592831
23.7539448,37.9592374
23.7542596,37.9590822
23.7543033,37.9590653
23.7543463,37.9590575
23.7547109,37.958836
23.7549465,37.9586357
23.7549409,37.9585491
23.7551229,37.9584909
23.7556516,37.9585156
23.7560053,37.9582304
23.7562319,37.9580038
23.7562716,37.9579578
23.7563065,37.9579112
23.7563949,37.9576147
23.7564234,37.9575314
23.7564589,37.9574424
23.7565021,37.9573497
23.7565196,37.9573239
23.7566141,37.9572098
23.7568233,37.9569824
23.7569972,37.9569191
23.7570681,37.9568944
23.7575745,37.9567135
23.7578397,37.9566185
23.7580609,37.9565348
23.7584317,37.9563952
23.7587343,37.9562501
23.7589037,37.9561823
23.7592534,37.9559609
23.7594198,37.9558555
23.7596368,37.955718
23.7599183,37.9555398
23.7601132,37.9554173
23.7605404,37.9551725
23.761061,37.9548449
23.7615631,37.9551154
23.7619001,37.9547225
23.7622912,37.9542722
23.7626187,37.9538943
23.7630228,37.9534293
23.7633843,37.9530002
23.7637616,37.9525607
23.7639243,37.9523579
23.7641255,37.9521222
23.764613,37.9514978
23.7648305,37.9512747
23.7649164,37.9514304
23.7650279,37.9515387
23.7650675,37.95158
23.7651449,37.9515309
23.7651936,37.9514664
23.7652375,37.9514035
23.7652636,37.9513457
23.7652655,37.9513286
23.765275,37.9512456
23.765288,37.9508604
23.7652962,37.9507718
23.7652994,37.9507307
23.7654241,37.9508219
23.7654903,37.9508776
23.7656892,37.9509856
23.7657201,37.9510762
23.7658173,37.9511215
23.7659896,37.9510135
23.7661569,37.9509951
23.7662315,37.9508517
23.7663055,37.9508653
23.7663851,37.9508339
23.7663851,37.9507747
23.7665529,37.9504472
23.766606,37.9503462
23.7666104,37.9502312
23.7666766,37.9500675
23.7666855,37.9498097
23.7666236,37.9495797
23.7665946,37.9489983
23.7665927,37.9489596
23.7667576,37.9488911
23.7669387,37.9488388
23.7670889,37.9487691
23.767195,37.9487656
23.7672303,37.9487831
23.7673496,37.9487622
23.7674456,37.9487909
23.7674652,37.9487357
23.7675287,37.9486766
23.7676576,37.948607
23.7677605,37.9485875
23.7681064,37.948436
23.7686872,37.9481786
23.7680307,37.9473193
23.7676241,37.9467672
23.7675123,37.946598
23.767484,37.9463631
23.7673974,37.9457398
				</coordinates>
			</LineString>
		</Placemark>

		<Placemark>
			<name>Taxi 190</name>
			<styleUrl>#red</styleUrl>
			<LineString>
				<altitudeMode>relative</altitudeMode>
				<coordinates>
23.7337386,37.9757207
23.7333398,37.9757668
23.7330959,37.9757996
23.7328759,37.9758291
23.7325535,37.9758724
23.7326123,37.9761221
23.732492,37.9761389
23.7324475,37.9761565
23.7323034,37.9763352
23.7322802,37.9763639
23.7321745,37.9765192
23.7321653,37.9765328
23.7320964,37.9766611
23.7320372,37.9767613
23.7319929,37.9768271
23.7319686,37.9768632
23.7318804,37.9769654
23.7318574,37.9769929
23.7317933,37.9770641
23.7317344,37.9771217
23.7316924,37.9771621
23.7315841,37.9772577
23.731285,37.9775215
23.7312797,37.9775497
23.7312767,37.9775656
23.7310972,37.9775855
23.7310989,37.9776123
23.7311007,37.9776394
23.7309385,37.9778432
23.7307887,37.9780239
23.7307243,37.9781016
23.7306109,37.978196
23.7304232,37.9783535
23.7303909,37.9783806
23.7299907,37.9787008
23.7296414,37.9789723
23.7296084,37.9789979
23.7294706,37.9791012
23.729372,37.9791751
23.7292394,37.979257
23.7292102,37.9792725
23.7290981,37.9793318
23.7287049,37.9795398
23.7285281,37.9796658
23.7283516,37.9796941
23.7276099,37.9798105
23.7270569,37.9798949
23.7269685,37.9799097
23.726883,37.9799214
23.7263409,37.9800073
23.7257403,37.9801064
23.7251721,37.9801901
23.7241836,37.9803383
23.7233572,37.9804774
23.722756,37.9802057
23.7226692,37.9801929
23.72259,37.9802183
23.7225387,37.9802883
23.7223076,37.9806036
23.7220721,37.9809249
23.7218038,37.9812909
23.7217559,37.9813612
23.7217182,37.981422
23.7213983,37.9818419
23.721191,37.9821355
23.7208706,37.9825893
23.720485,37.9831222
23.7203918,37.9832521
23.719816,37.9840543
23.7197826,37.9841016
23.7197591,37.9841349
23.719358,37.9847437
23.7193228,37.9848289
23.7192935,37.9849094
23.7192835,37.9849906
23.7192835,37.9850432
23.7192804,37.9850787
23.7192561,37.9851569
23.7192286,37.9852146
23.719019,37.985543
23.71881,37.985878
23.7181039,37.986867
23.7177528,37.987364
23.716937,37.9884857
23.7167989,37.9886729
23.7167955,37.9887347
23.7167714,37.9887683
23.7167163,37.9888454
23.7166723,37.9889069
23.7166254,37.9889724
23.7164217,37.9892572
23.7163244,37.9893932
23.7162286,37.9895272
23.7161604,37.9896226
23.7157894,37.9901423
23.7157313,37.9902236
23.7156737,37.9902983
23.715635,37.9903485
23.7154711,37.9905611
23.7153789,37.9906806
23.7151866,37.99093
23.7150381,37.991126
23.7147494,37.9915177
23.7145766,37.9917651
23.7145616,37.9917865
23.714417,37.9919922
23.7142387,37.9922412
23.7141146,37.9924155
23.7139465,37.9926515
23.713909,37.9927132
23.7138554,37.9928014
23.7137218,37.9930055
23.7135726,37.9932715
23.7133783,37.9936367
23.7131871,37.9940238
23.7131582,37.9940916
23.7131132,37.9942026
23.7130189,37.9943977
23.713001,37.9944314
23.7129843,37.9944626
23.7128901,37.9945522
23.7128184,37.9946473
23.7127908,37.9946865
23.7127184,37.9948086
23.7125898,37.9950209
23.7124951,37.9951773
23.7122877,37.9955245
23.7121955,37.995666
23.7120862,37.9958129
23.7120252,37.9958882
23.7119403,37.9959832
23.7118762,37.9960467
23.7118239,37.9960942
23.7116509,37.996239
23.7116263,37.9962612
23.7111543,37.996664
23.710919,37.996861
23.7104479,37.9972483
23.7103689,37.997306
23.7102561,37.9973973
23.7102239,37.9974248
23.7096411,37.9979001
23.70953,37.9979907
23.7084835,37.9988745
23.7084391,37.9989111
23.7082616,37.9990546
23.707696,37.9995149
23.7073578,37.9997902
23.7068801,38.0001907
23.706646,38.0003806
23.7064186,38.0005645
23.7063377,38.0006326
23.7056567,38.0012032
23.7054548,38.0013642
23.7053839,38.0014183
23.7052133,38.0015516
23.705143,38.0016026
23.7049758,38.001729
23.7049252,38.0017675
23.7048942,38.0017911
23.7047855,38.0018738
23.7043661,38.0022163
23.7039187,38.0025972
23.7034214,38.0030123
23.7016708,38.0044542
23.7015446,38.0045569
23.7014242,38.0046578
23.7012074,38.0048395
23.7003016,38.0055742
23.7002124,38.0056445
23.7000924,38.0057392
23.6998473,38.0059443
23.6997096,38.0060522
23.6995939,38.0061428
23.6993478,38.0063444
23.6992573,38.0063881
23.6991715,38.0064374
23.6991479,38.0064544
23.6989197,38.0066179
23.6988797,38.0066465
23.6988168,38.0066951
23.698724,38.0067632
23.6983772,38.0070032
23.6982291,38.0071057
23.698203,38.0071237
23.6980638,38.0072195
23.6978633,38.0073592
23.6975976,38.0075554
23.6973722,38.0077181
23.6972294,38.0078103
23.6971552,38.007852
23.6967452,38.0080852
23.6965485,38.0081903
23.6963728,38.008285
23.6960922,38.0079092
23.6952041,38.0082528
23.694594,38.0085053
23.6940366,38.008736
23.6934962,38.0089596
23.6929502,38.0092673
23.6922884,38.0096779
23.6919344,38.0093229
23.6914105,38.0096697
23.690947,38.0099537
23.6904726,38.0102615
23.6897458,38.0103481
23.6888763,38.0104584
				</coordinates>
			</LineString>
		</Placemark>

		<Placemark>
			<name>Taxi 200</name>
			<styleUrl>#red</styleUrl>
			<LineString>
				<altitudeMode>relative</altitudeMode>
				<coordinates>
23.7340236,37.9757564
23.7340438,37.9757955
23.7341089,37.975934
23.7341564,37.9760117
23.7342048,37.976078
23.7342585,37.9761266
23.734351,37.9761805
23.7344963,37.9761606
23.7345342,37.9761561
23.7355361,37.9760364
23.7356418,37.9760584
23.7356995,37.9760775
23.7357437,37.9760944
23.7357891,37.9761159
23.735906,37.976179
23.7359395,37.9761832
23.73602,37.9761885
23.7361434,37.9761895
23.7365457,37.9761419
23.7366615,37.9761492
23.7368199,37.9761283
23.7375177,37.9760437
23.7376313,37.9760329
23.7378413,37.9760074
23.7378927,37.9760012
23.7384373,37.9759352
23.7387046,37.9759027
23.7390942,37.9758555
23.7404363,37.975688
23.7405666,37.9756705
23.7406807,37.9756573
23.7412036,37.9755874
23.7420489,37.9754785
23.7422395,37.9754516
23.7427355,37.975386
23.742904,37.9753665
23.7429885,37.9753625
23.7430919,37.97537
23.7431637,37.9753827
23.7432109,37.9753905
23.7443561,37.975664
23.7457836,37.9760051
23.7458776,37.9760276
23.7459313,37.9760405
23.746955,37.9762849
23.747045,37.9763061
23.7472094,37.9763448
23.7477783,37.9764788
23.748322,37.9766068
23.7487429,37.9767089
23.7487858,37.9767193
23.7493738,37.976862
23.7501952,37.9770609
23.7505103,37.9771443
23.7507068,37.9772735
23.750979,37.9774575
23.7514568,37.9778148
23.7519489,37.9782282
23.7520998,37.9783627
23.7521335,37.9783938
23.7521979,37.9784477
23.7528808,37.9790349
23.7539009,37.9799088
23.7539298,37.9799376
23.7540921,37.980096
23.7544936,37.9805113
23.7547967,37.9808284
23.7550502,37.9810969
23.755202,37.9812598
23.7553185,37.9813842
23.7559614,37.9820464
23.7560962,37.9821805
23.7561869,37.9822628
23.7562726,37.9823343
23.7563243,37.9823755
23.7563719,37.9824141
23.7564342,37.9824643
23.7564992,37.9825151
23.7565743,37.9825701
23.756691,37.982642
23.7568587,37.9827318
23.7570411,37.9828248
23.7571443,37.9828756
23.7573227,37.9829633
23.7574682,37.9830346
23.7578249,37.9832122
23.758061,37.983337
23.7583198,37.9834976
23.7585174,37.9836541
23.758913,37.9839987
23.7591786,37.984228
23.759247,37.9842886
23.759475,37.9843242
23.759664,37.9844898
23.7598706,37.9846678
23.7600723,37.9847569
23.7606109,37.9849198
23.76065,37.9849357
23.7608585,37.985036
23.7612188,37.9852065
23.7613139,37.9852438
23.7616182,37.9853631
23.7618087,37.9854378
23.7618296,37.985446
23.7618682,37.9854611
23.7623774,37.9856608
23.7629244,37.9858642
23.7630374,37.9859055
23.7630928,37.9859205
23.763119,37.9860206
23.7631465,37.9861197
23.763195,37.9861148
23.763319,37.9861189
23.763409,37.9861279
23.7635481,37.9861686
23.763695,37.9862176
23.7637508,37.9862373
23.763987,37.986334
23.7644001,37.9865046
23.765091,37.9868178
23.7653001,37.9869273
23.7654794,37.9870415
23.7655229,37.9870754
23.7657088,37.98722
23.7659056,37.9874025
23.7663753,37.9878607
23.7664587,37.9879319
23.766639,37.9880656
23.7667687,37.988127
23.766906,37.9881796
23.7670666,37.9882085
23.7671376,37.9882693
23.7671732,37.9882952
23.7673338,37.9884121
23.7677814,37.9886565
23.7682034,37.9888914
23.7687727,37.9891821
23.7691589,37.9893892
23.7695115,37.9896497
23.7699648,37.990019
23.7703092,37.9902703
23.7706885,37.9905645
23.7710033,37.9908037
23.7712701,37.9909966
23.7716804,37.9912272
23.7720415,37.9914059
23.7724699,37.991607
23.7726589,37.9916914
23.7729892,37.9918329
23.7734532,37.9920379
23.7739373,37.9922611
23.7749649,37.9927635
23.7751181,37.9928503
23.7753665,37.9929975
23.7756387,37.9932128
23.7757101,37.9932664
23.775834,37.9933594
23.7758718,37.9933878
23.7761304,37.9935815
23.7762795,37.993694
23.7765006,37.9938586
23.7768163,37.9940896
23.7768909,37.9941409
23.77717,37.9943427
23.7777343,37.9947052
23.7783742,37.9950688
23.7785465,37.9951294
23.7785992,37.9951663
23.7786848,37.9952156
23.7788154,37.9952916
23.7791406,37.9954709
23.7793111,37.9955725
23.7794026,37.995627
23.7795165,37.9956947
23.7795578,37.9957193
23.7809316,37.9965595
23.7811249,37.9966858
23.7819197,37.9972579
23.7820643,37.9973636
23.7821673,37.9974389
23.782205,37.9974665
23.782387,37.9975937
23.7828267,37.9979149
23.7835131,37.9984857
23.7838423,37.9987648
23.7838949,37.998828
23.7839357,37.9988916
23.7839652,37.9989507
23.7839868,37.9990136
23.7839974,37.9990817
23.7840001,37.9992297
23.7839759,37.999255
23.7839598,37.9992804
23.7839343,37.9993292
23.7839169,37.9993755
23.7838947,37.9994294
23.7838659,37.9995002
23.7838364,37.999553
23.7837962,37.9995995
23.7838296,37.999653
23.7841123,38.0000612
23.7842385,38.0002656
23.7842576,38.0003415
23.7842522,38.0004006
23.7842361,38.0004365
23.7842039,38.0004704
23.7841556,38.0004999
23.7840988,38.0005173
23.7840212,38.0005294
23.7840328,38.0006062
23.7840328,38.0006693
23.7840219,38.0007328
23.7840076,38.0007898
23.7839812,38.0008382
23.7840027,38.0008635
23.7840162,38.0008994
23.7840215,38.0009353
23.7840054,38.0012862
23.7839947,38.0013242
23.7839759,38.0013665
23.7845231,38.0020619
23.7845686,38.0020383
23.7846465,38.0021374
23.7847133,38.0022187
23.7852483,38.0019591
23.7857151,38.0017127
23.7858907,38.0019318
23.7860711,38.0021514
23.7864913,38.002673
23.7866714,38.0028956
23.7869237,38.0031844
23.787135,38.0034451
23.7873629,38.0036766
23.7876725,38.0038814
23.7879539,38.0041022
23.7881652,38.0043144
23.7885515,38.0048956
23.7888044,38.0052967
23.7888524,38.0053737
23.7890539,38.0056878
23.78908,38.005719
23.7891022,38.0057317
23.7891545,38.0057523
23.7892282,38.0057628
23.7892711,38.0057671
23.7893692,38.0057599
23.7891954,38.005916
23.7896576,38.006622
23.7901271,38.0073434
23.7904947,38.0078845
23.7906893,38.0082215
23.7910629,38.0087668
23.7911183,38.0088498
23.7912551,38.0090447
23.7914499,38.0093367
23.7921705,38.0104494
23.7922433,38.0105581
23.7924351,38.0109022
23.7927984,38.011554
23.7927357,38.0115815
23.7929481,38.011907
23.7932233,38.0123655
23.7937527,38.0131537
23.7938312,38.0132119
23.7939171,38.0132371
23.7943172,38.0127892
23.7945767,38.0125625
23.7946654,38.0125293
23.7948863,38.0125084
23.7949204,38.0125062
				</coordinates>
			</LineString>
		</Placemark>

	</Document>
</kml>
