<?xml version="1.0" encoding="UTF-8"?>
	<kml xmlns="http://earth.google.com/kml/2.1">
	<Document>
		<name>Taxi Routes</name>
		<Style id="lime">
			<LineStyle>
				<color>ff009900</color>
				<width>4</width>
			</LineStyle>
		</Style>
		<Style id="green">
			<LineStyle>
				<color>ff00ff00</color>
				<width>4</width>
			</LineStyle>
		</Style>

		<Placemark>
			<name>First Route for Best Taxi</name>
			<styleUrl>#lime</styleUrl>
			<LineString>
				<altitudeMode>relative</altitudeMode>
				<coordinates>
23.733998,37.9756885
23.7340236,37.9757564
23.7340438,37.9757955
23.7341089,37.975934
23.7341564,37.9760117
23.7342048,37.976078
23.7342585,37.9761266
23.734351,37.9761805
23.7343947,37.9762898
23.7344157,37.9763324
23.7344673,37.9765445
23.7344602,37.9766098
23.734435,37.9766622
23.7348068,37.9768472
23.7347623,37.9769002
23.734151,37.9776286
23.7341002,37.9776891
23.7347493,37.978022
23.7347911,37.9780434
23.7348632,37.9780804
23.7349878,37.9781443
23.7359527,37.9786391
23.7363999,37.9788685
23.7364846,37.9789119
23.7368224,37.9790923
23.7370191,37.9791953
23.7373749,37.9793873
23.7375354,37.979473
23.7383764,37.9799221
23.7384404,37.9799563
23.7389089,37.9801923
23.7392291,37.9803513
23.7393,37.9803899
23.7397104,37.9805989
23.7401313,37.9808296
23.7402898,37.9809088
23.7403984,37.9809625
23.7405853,37.9810548
23.740524,37.9811722
23.7404826,37.981284
23.7404662,37.9814351
23.7404816,37.9815956
23.7404867,37.9816546
23.740545,37.9818342
23.7406558,37.9820249
23.7406079,37.9820424
23.7405861,37.9820967
23.740608,37.9821682
23.7406711,37.9823902
23.7406858,37.9824959
23.7406831,37.9828234
23.7407137,37.9828808
23.7409603,37.9831022
23.7416297,37.9837347
23.7418522,37.9838526
23.7414609,37.984285
				</coordinates>
			</LineString>
		</Placemark>

		<Placemark>
			<name>Second Route for Best Taxi</name>
			<styleUrl>#green</styleUrl>
			<LineString>
				<altitudeMode>relative</altitudeMode>
				<coordinates>
23.733998,37.9756885
23.7340236,37.9757564
23.7340438,37.9757955
23.7341089,37.975934
23.7341564,37.9760117
23.7342048,37.976078
23.7342585,37.9761266
23.734351,37.9761805
23.7343947,37.9762898
23.7344157,37.9763324
23.7344673,37.9765445
23.7344602,37.9766098
23.734435,37.9766622
23.7343863,37.9767209
23.7343545,37.9767585
23.7337285,37.9774985
23.7338549,37.9775633
23.7340657,37.9776714
23.7341002,37.9776891
23.7347493,37.978022
23.7347911,37.9780434
23.7348632,37.9780804
23.7349878,37.9781443
23.7359527,37.9786391
23.7363999,37.9788685
23.7364846,37.9789119
23.7368224,37.9790923
23.7370191,37.9791953
23.7373749,37.9793873
23.7375354,37.979473
23.7383764,37.9799221
23.7384404,37.9799563
23.7389089,37.9801923
23.7392291,37.9803513
23.7393,37.9803899
23.7397104,37.9805989
23.7401313,37.9808296
23.7402898,37.9809088
23.7403984,37.9809625
23.7405853,37.9810548
23.740524,37.9811722
23.7404826,37.981284
23.7404662,37.9814351
23.7404816,37.9815956
23.7404867,37.9816546
23.740545,37.9818342
23.7406558,37.9820249
23.7406079,37.9820424
23.7405861,37.9820967
23.740608,37.9821682
23.7406711,37.9823902
23.7406858,37.9824959
23.7406831,37.9828234
23.7407137,37.9828808
23.7409603,37.9831022
23.7416297,37.9837347
23.7418522,37.9838526
23.7414609,37.984285
				</coordinates>
			</LineString>
		</Placemark>
	</Document>
</kml>
